<?xml version="1.0" encoding="utf-8"?>
<!-- Generator: Adobe Illustrator 21.1.0, SVG Export Plug-In . SVG Version: 6.00 Build 0)  -->
<svg version="1.1" id="Layer_1" xmlns="http://www.w3.org/2000/svg" xmlns:xlink="http://www.w3.org/1999/xlink" x="0px" y="0px"
	 viewBox="0 0 67.8 42.9" style="enable-background:new 0 0 67.8 42.9;" xml:space="preserve">
<style type="text/css">
	.st0{fill:#F94952;}
</style>
<g>
	<g>
		<path class="st0" d="M63,18.2l-1.8-7c0.5-0.1,0.8-0.5,0.8-1V9c0-2.5-2-4.5-4.5-4.5h-8V2.2c0-1.2-1-2.2-2.2-2.2H6.7
			C5.5,0,4.5,1,4.5,2.2v19.2c0,0.6,0.5,1.1,1.1,1.1c0.6,0,1.1-0.5,1.1-1.1V2.2c0,0,0-0.1,0.1-0.1h40.8c0,0,0.1,0,0.1,0.1v19.2
			c0,0.6,0.5,1.1,1.1,1.1c0.6,0,1.1-0.5,1.1-1.1v-1.2h12.5c0,0,0,0,0,0c0,0,0,0,0,0c1.5,0,2.8,1,3.3,2.4h-3.3
			c-0.6,0-1.1,0.5-1.1,1.1V26c0,1.8,1.5,3.3,3.3,3.3h1.2V34h-2.8c-0.9-2.6-3.4-4.5-6.4-4.5c-2.9,0-5.4,1.9-6.4,4.5h-0.5v-8
			c0-0.6-0.5-1.1-1.1-1.1c-0.6,0-1.1,0.5-1.1,1.1v8h-22c-0.9-2.6-3.4-4.5-6.4-4.5c-2.9,0-5.4,1.9-6.4,4.5H6.7c0,0-0.1,0-0.1-0.1
			v-2.3h4.6c0.6,0,1.1-0.5,1.1-1.1c0-0.6-0.5-1.1-1.1-1.1H1.1c-0.6,0-1.1,0.5-1.1,1.1c0,0.6,0.5,1.1,1.1,1.1h3.5v2.3
			c0,1.2,1,2.2,2.2,2.2h5.7c0,0,0,0,0,0.1c0,3.7,3,6.7,6.7,6.7c3.7,0,6.7-3,6.7-6.7c0,0,0,0,0-0.1h23.9c0,0,0,0,0,0.1
			c0,3.7,3,6.7,6.7,6.7s6.7-3,6.7-6.7c0,0,0,0,0-0.1h3.5c0.6,0,1.1-0.5,1.1-1.1V23.7C67.8,20.9,65.7,18.6,63,18.2z M49.7,6.7h8
			C59,6.7,60,7.7,60,9v0.1H49.7V6.7z M49.7,18.1v-6.9h9.4l1.7,6.9H49.7z M19.2,40.8c-2.5,0-4.6-2.1-4.6-4.6c0-2.5,2.1-4.6,4.6-4.6
			c2.5,0,4.6,2.1,4.6,4.6C23.8,38.7,21.7,40.8,19.2,40.8z M56.5,40.8c-2.5,0-4.6-2.1-4.6-4.6c0-2.5,2.1-4.6,4.6-4.6
			c2.5,0,4.6,2.1,4.6,4.6C61.1,38.7,59.1,40.8,56.5,40.8z M65.7,27.2h-1.2c-0.7,0-1.2-0.5-1.2-1.2v-1.2h2.4V27.2z M19.2,34
			C18,34,17,35,17,36.2c0,1.2,1,2.2,2.2,2.2c1.2,0,2.2-1,2.2-2.2C21.4,35,20.4,34,19.2,34z M56.5,34c-1.2,0-2.2,1-2.2,2.2
			c0,1.2,1,2.2,2.2,2.2c1.2,0,2.2-1,2.2-2.2C58.7,35,57.7,34,56.5,34z M27.2,30.5c0,0.6,0.5,1.1,1.1,1.1h15.9c0.6,0,1.1-0.5,1.1-1.1
			c0-0.6-0.5-1.1-1.1-1.1H28.2C27.6,29.4,27.2,29.9,27.2,30.5z M3.3,27h13.6c0.6,0,1.1-0.5,1.1-1.1c0-0.6-0.5-1.1-1.1-1.1H3.3
			c-0.6,0-1.1,0.5-1.1,1.1C2.3,26.6,2.7,27,3.3,27z M35.4,10.5L26,19.9L21.1,15c-0.4-0.4-1.1-0.4-1.5,0c-0.4,0.4-0.4,1.1,0,1.5
			l5.7,5.7c0.2,0.2,0.5,0.3,0.8,0.3c0.3,0,0.5-0.1,0.8-0.3L36.9,12c0.4-0.4,0.4-1.1,0-1.5C36.5,10.1,35.8,10.1,35.4,10.5z"/>
	</g>
</g>
</svg>
