<?xml version="1.0" encoding="utf-8"?>
<!-- Generator: Adobe Illustrator 21.1.0, SVG Export Plug-In . SVG Version: 6.00 Build 0)  -->
<svg version="1.1" id="Layer_1" xmlns="http://www.w3.org/2000/svg" xmlns:xlink="http://www.w3.org/1999/xlink" x="0px" y="0px"
	 viewBox="0 0 37.8 36" style="enable-background:new 0 0 37.8 36;" xml:space="preserve">
<style type="text/css">
	.st0{fill:#fff;}
</style>
<path class="st0" d="M7.6,36c-0.1,0-0.3,0-0.4-0.1C7,35.7,6.9,35.5,7,35.2L9.1,23l-8.9-8.6C0,14.2,0,13.9,0,13.7
	c0.1-0.2,0.3-0.4,0.5-0.5l12.2-1.8l5.5-11.1C18.4,0.1,18.6,0,18.9,0l0,0c0.3,0,0.5,0.1,0.6,0.4L25,11.5l12.2,1.8
	c0.3,0,0.5,0.2,0.5,0.5c0.1,0.2,0,0.5-0.2,0.7L28.7,23l2.1,12.2c0,0.3-0.1,0.5-0.3,0.7c-0.2,0.2-0.5,0.2-0.7,0.1l-10.9-5.8L7.9,35.9
	C7.8,36,7.7,36,7.6,36z M2.1,14.4l8.1,7.9c0.2,0.2,0.2,0.4,0.2,0.6L8.5,34.1l10-5.3c0.2-0.1,0.4-0.1,0.6,0l10,5.3l-1.9-11.2
	c0-0.2,0-0.4,0.2-0.6l8.1-7.9l-11.2-1.6c-0.2,0-0.4-0.2-0.5-0.4l-5-10.2l-5,10.2c-0.1,0.2-0.3,0.3-0.5,0.4L2.1,14.4z"/>
</svg>
