<?xml version="1.0" encoding="utf-8"?>
<!-- Generator: Adobe Illustrator 21.1.0, SVG Export Plug-In . SVG Version: 6.00 Build 0)  -->
<svg version="1.1" id="Layer_1" xmlns="http://www.w3.org/2000/svg" xmlns:xlink="http://www.w3.org/1999/xlink" x="0px" y="0px"
	 viewBox="0 0 41.9 83.2" style="enable-background:new 0 0 41.9 83.2;" xml:space="preserve">
<style type="text/css">
	.st0{fill:#F94952;}
</style>
<path class="st0" d="M1.5,83.2c-0.4,0-0.8-0.2-1.1-0.4c-0.6-0.6-0.6-1.5,0-2.1l38.1-38.1c0.3-0.3,0.4-0.6,0.4-0.9
	c0-0.4-0.1-0.7-0.4-0.9L0.4,2.6C-0.1,2-0.1,1,0.4,0.4C0.7,0.2,1.1,0,1.5,0l0,0c0.4,0,0.8,0.2,1.1,0.4l38.1,38.1
	c0.8,0.8,1.3,1.9,1.3,3.1c0,1.2-0.5,2.2-1.3,3.1L2.6,82.7C2.3,83,1.9,83.2,1.5,83.2z"/>
</svg>
