<?xml version="1.0" encoding="utf-8"?>
<!-- Generator: Adobe Illustrator 21.1.0, SVG Export Plug-In . SVG Version: 6.00 Build 0)  -->
<svg version="1.1" id="Layer_1" xmlns="http://www.w3.org/2000/svg" xmlns:xlink="http://www.w3.org/1999/xlink" x="0px" y="0px"
	 viewBox="0 0 35.6 31" style="enable-background:new 0 0 35.6 31;" xml:space="preserve">
<style type="text/css">
	.st0{fill:#F94952;}
</style>
<g>
	<g>
		<path class="st0" d="M35.4,5.6c-0.2-0.3-0.5-0.4-0.8-0.4H8.5L7.3,0.8C7.2,0.3,6.8,0,6.4,0H1C0.5,0,0,0.5,0,1s0.5,1,1,1h4.5
			l1.1,4.4c0,0,0,0,0,0l4,15.5c0.1,0.5,0.5,0.8,1,0.8h18.9c0.5,0,0.9-0.3,1-0.8l4-15.5C35.7,6.1,35.6,5.8,35.4,5.6z M16.1,20.6h-3.6
			l-0.8-3.1h4.4V20.6z M16.1,15.5h-5l-0.8-3.1h5.8V15.5z M16.1,10.3H9.8L9,7.2h7.1V10.3z M24.1,20.6h-5.9v-3.1h5.9V20.6z M24.1,15.5
			h-5.9v-3.1h5.9V15.5z M24.1,10.3h-5.9V7.2h5.9V10.3z M29.8,20.6h-3.6v-3.1h4.4L29.8,20.6z M31.1,15.5h-5v-3.1h5.8L31.1,15.5z
			 M32.5,10.3h-6.3V7.2h7.1L32.5,10.3z M14.4,23.5c-2.1,0-3.8,1.7-3.8,3.8c0,2.1,1.7,3.8,3.8,3.8c2.1,0,3.8-1.7,3.8-3.8
			C18.2,25.2,16.5,23.5,14.4,23.5z M14.4,29c-0.9,0-1.7-0.8-1.7-1.7c0-0.9,0.8-1.7,1.7-1.7c0.9,0,1.7,0.8,1.7,1.7
			C16.1,28.2,15.4,29,14.4,29z M27.9,23.5c-2.1,0-3.8,1.7-3.8,3.8c0,2.1,1.7,3.8,3.8,3.8c2.1,0,3.8-1.7,3.8-3.8
			C31.6,25.2,29.9,23.5,27.9,23.5z M27.9,29c-0.9,0-1.7-0.8-1.7-1.7c0-0.9,0.8-1.7,1.7-1.7c0.9,0,1.7,0.8,1.7,1.7
			C29.6,28.2,28.8,29,27.9,29z"/>
	</g>
</g>
</svg>
